^C:\USERS\ZVERY\181-331_KOROLYOV\LAB_1_TYPE_DATA\X64\DEBUG\LAB1TYPEDATA.OBJ|C:\USERS\ZVERY\181-331_KOROLYOV\LAB_1_TYPE_DATA\X64\DEBUG\STDAFX.OBJ
C:\PROGRAM FILES (X86)\WINDOWS KITS\10\LIB\10.0.15063.0\UM\X64\KERNEL32.LIB
C:\PROGRAM FILES (X86)\WINDOWS KITS\10\LIB\10.0.15063.0\UM\X64\USER32.LIB
C:\PROGRAM FILES (X86)\WINDOWS KITS\10\LIB\10.0.15063.0\UM\X64\GDI32.LIB
C:\PROGRAM FILES (X86)\WINDOWS KITS\10\LIB\10.0.15063.0\UM\X64\WINSPOOL.LIB
C:\PROGRAM FILES (X86)\WINDOWS KITS\10\LIB\10.0.15063.0\UM\X64\COMDLG32.LIB
C:\PROGRAM FILES (X86)\WINDOWS KITS\10\LIB\10.0.15063.0\UM\X64\ADVAPI32.LIB
C:\PROGRAM FILES (X86)\WINDOWS KITS\10\LIB\10.0.15063.0\UM\X64\SHELL32.LIB
C:\PROGRAM FILES (X86)\WINDOWS KITS\10\LIB\10.0.15063.0\UM\X64\OLE32.LIB
C:\PROGRAM FILES (X86)\WINDOWS KITS\10\LIB\10.0.15063.0\UM\X64\OLEAUT32.LIB
C:\PROGRAM FILES (X86)\WINDOWS KITS\10\LIB\10.0.15063.0\UM\X64\UUID.LIB
C:\PROGRAM FILES (X86)\WINDOWS KITS\10\LIB\10.0.15063.0\UM\X64\ODBC32.LIB
C:\PROGRAM FILES (X86)\WINDOWS KITS\10\LIB\10.0.15063.0\UM\X64\ODBCCP32.LIB
C:\USERS\ZVERY\181-331_KOROLYOV\LAB_1_TYPE_DATA\X64\DEBUG\LAB1TYPEDATA.OBJ
C:\USERS\ZVERY\181-331_KOROLYOV\LAB_1_TYPE_DATA\X64\DEBUG\STDAFX.OBJ
C:\WINDOWS\GLOBALIZATION\SORTING\SORTDEFAULT.NLS
C:\PROGRAM FILES (X86)\MICROSOFT VISUAL STUDIO\2017\COMMUNITY\VC\TOOLS\MSVC\14.15.26726\LIB\X64\MSVCPRTD.LIB
C:\PROGRAM FILES (X86)\MICROSOFT VISUAL STUDIO\2017\COMMUNITY\VC\TOOLS\MSVC\14.15.26726\LIB\X64\MSVCRTD.LIB
C:\PROGRAM FILES (X86)\MICROSOFT VISUAL STUDIO\2017\COMMUNITY\VC\TOOLS\MSVC\14.15.26726\LIB\X64\OLDNAMES.LIB
C:\PROGRAM FILES (X86)\MICROSOFT VISUAL STUDIO\2017\COMMUNITY\VC\TOOLS\MSVC\14.15.26726\LIB\X64\VCRUNTIMED.LIB
C:\PROGRAM FILES (X86)\WINDOWS KITS\10\LIB\10.0.15063.0\UCRT\X64\UCRTD.LIB
C:\PROGRAM FILES (X86)\WINDOWS KITS\10\BIN\10.0.15063.0\X86\RC.EXE
C:\PROGRAM FILES (X86)\MICROSOFT VISUAL STUDIO\2017\COMMUNITY\VC\TOOLS\MSVC\14.15.26726\BIN\HOSTX86\X86\CVTRES.EXE
C:\WINDOWS\SYSTEM32\TZRES.DLL
